<?xml version="1.0" encoding="utf-8"?>
<!-- Generator: Adobe Illustrator 16.0.0, SVG Export Plug-In . SVG Version: 6.00 Build 0)  -->
<!DOCTYPE svg PUBLIC "-//W3C//DTD SVG 1.1//EN" "http://www.w3.org/Graphics/SVG/1.1/DTD/svg11.dtd">
<svg version="1.1" id="Layer_1" xmlns="http://www.w3.org/2000/svg" xmlns:xlink="http://www.w3.org/1999/xlink" x="0px" y="0px"
	 width="300.48px" height="391.84px" viewBox="0 0 300.48 391.84" enable-background="new 0 0 300.48 391.84" xml:space="preserve">
<g>
	<polyline fill="#3C92CA" points="162.48,229.199 168.719,367.44 149.762,384.559 131.121,367.68 137.121,229.199 	"/>
	<path d="M7.441,323.358c4,0,7.278-3.28,7.278-7.28v-40.316c0-6.403,2.801-12.403,7.679-16.403
		c35.922-29.519,74.801-49.12,82.243-52.8c3.437-1.68,5.519-5.039,5.519-8.879v-56.719c0-2.402-1.199-4.723-3.199-6
		c-5.359-3.602-8.641-9.602-8.641-16V60.238c0-25.199,20.481-45.679,45.68-45.679h12.641c25.199,0,45.68,20.48,45.68,45.679v58.801
		c0,6.481-3.199,12.402-8.641,16c-2,1.359-3.199,3.602-3.199,6v56.723c0,3.84,2.16,7.199,5.52,8.879
		c7.441,3.598,46.398,23.281,82.238,52.8c4.883,4,7.684,10,7.684,16.399v40.32c0,4,3.277,7.28,7.277,7.28s7.281-3.28,7.281-7.28
		v-40.32c0-10.719-4.719-20.801-13.039-27.602c-34-27.918-70.641-47.359-82.48-53.277v-50.242c7.438-6.399,11.84-15.68,11.84-25.68
		V60.238C216.801,27.039,189.762,0,156.559,0h-12.637C110.719,0,83.68,27.039,83.68,60.238v58.801c0,9.922,4.398,19.281,11.84,25.68
		v50.242c-11.84,5.918-48.481,25.359-82.481,53.277C4.801,255.039,0,265.121,0,275.84v40.32
		C0.238,320.078,3.441,323.358,7.441,323.358L7.441,323.358z M7.441,323.358"/>
	<path d="M169.84,206.801c-4,0-7.281,3.277-7.281,7.277c0,3.602-1.52,6.801-4,9.043c-0.48,0.319-0.957,0.641-1.359,1.117
		c-1.918,1.363-4.32,2.082-6.879,2.082c-6.718,0-12.242-5.52-12.242-12.242c0-4-3.277-7.277-7.277-7.277s-7.281,3.277-7.281,7.277
		c0,6.401,2.32,12.319,6.082,16.961L123.68,367.44c-0.078,2.161,0.8,4.239,2.398,5.681L144.719,390
		c1.359,1.281,3.121,1.84,4.883,1.84c1.757,0,3.519-0.641,4.878-1.84l18.961-17.121c1.598-1.438,2.48-3.521,2.398-5.68
		l-6.078-134.802c4.477-4.796,7.277-11.198,7.277-18.237C177.121,210.078,173.84,206.801,169.84,206.801L169.84,206.801z
		 M149.762,374.801l-11.282-10.16l5.36-124.719c2.082,0.558,4.238,0.797,6.48,0.797c1.84,0,3.602-0.16,5.36-0.559l5.602,124.078
		L149.762,374.801z M149.762,374.801"/>
</g>
</svg>
